{
	"format_version": "1.8.0",
	"animations": {
		"animation.omanyte_fetus.sleep": {
			"loop": true,
			"bones": {
				"body": {
					"rotation": [-5, 0, 0],
					"position": [0, 0, -1]
				}
			}
		}
	}
}