{
	"format_version": "1.10.0",
	"particle_effect": {
		"description": {
			"identifier": "cobblemon:pokeball_capture_hisui_smoke_contrail",
			"basic_render_parameters": {
				"material": "particles_blend",
				"texture": "cobblemon:particle/smoke"
			}
		},
		"components": {
			"minecraft:emitter_rate_steady": {
				"spawn_rate": 15,
				"max_particles": 100
			},
			"minecraft:emitter_lifetime_once": {
				"active_time": "1/3"
			},
			"minecraft:emitter_shape_point": {
				"offset": ["math.random(-0.1,0.1)/2", "-1.75 * math.sin(v.emitter_age*90*3/2)", "math.random(-0.1,0.1)/2"]
			},
			"minecraft:particle_lifetime_expression": {
				"max_lifetime": "math.random(0.45,0.7)*3/4"
			},
			"minecraft:particle_initial_spin": {
				"rotation": "math.random_integer(0,3) * 90"
			},
			"minecraft:particle_initial_speed": 0,
			"minecraft:particle_motion_dynamic": {},
			"minecraft:particle_appearance_billboard": {
				"size": [0.2, 0.2],
				"facing_camera_mode": "rotate_xyz",
				"uv": {
					"texture_width": 16,
					"texture_height": 96,
					"flipbook": {
						"base_UV": [0, 0],
						"size_UV": [16, 16],
						"step_UV": [0, 16],
						"max_frame": 6,
						"stretch_to_lifetime": true
					}
				}
			},
			"minecraft:particle_appearance_tinting": {
				"color": {
					"interpolant": "v.particle_age / v.particle_lifetime",
					"gradient": {
						"0.0": "#FFFFFFFF",
						"0.79": "#FFFFFFFF",
						"1.0": "#00D6E0E6"
					}
				}
			}
		}
	}
}