{
	"format_version": "1.10.0",
	"particle_effect": {
		"description": {
			"identifier": "cobblemon:pokeball_capture_hisui_firework_small_sparkles",
			"basic_render_parameters": {
				"material": "particles_blend",
				"texture": "cobblemon:textures/particle/sparkle"
			}
		},
		"components": {
			"minecraft:emitter_rate_instant": {
				"num_particles": "6"
			},
			"minecraft:emitter_lifetime_once": {
				"active_time": 1
			},
			"minecraft:emitter_shape_sphere": {
				"offset": [0, -1.65, 0],
				"surface_only": true,
				"direction": ["math.random(-0.4,0.4)", -0.35, "math.random(-0.4,0.4)"]
			},
			"minecraft:particle_lifetime_expression": {
				"max_lifetime": "math.random(0.35,0.7)"
			},
			"minecraft:particle_initial_speed": "math.random(2.5,3.5)",
			"minecraft:particle_motion_dynamic": {
				"linear_acceleration": [0, -4, 0],
				"linear_drag_coefficient": 0.75
			},
			"minecraft:particle_appearance_billboard": {
				"size": [0.15, 0.15],
				"facing_camera_mode": "rotate_xyz",
				"uv": {
					"texture_width": 8,
					"texture_height": 32,
					"flipbook": {
						"base_UV": [0, 0],
						"size_UV": [8, 8],
						"step_UV": [0, 8],
						"max_frame": 4,
						"stretch_to_lifetime": true
					}
				}
			},
			"minecraft:particle_appearance_tinting": {
				"color": {
					"interpolant": "v.particle_age / v.particle_lifetime",
					"gradient": {
						"0.0": "#ffffffff",
						"0.65": "#ffffffff",
						"1.0": "#00FFFFFF"
					}
				}
			}
		}
	}
}