{
  "replace": false,
  "values": [
    "cobblemon:fire_stone_ore",
    "cobblemon:deepslate_fire_stone_ore",
    "cobblemon:water_stone_ore",
    "cobblemon:deepslate_water_stone_ore",
    "cobblemon:thunder_stone_ore",
    "cobblemon:deepslate_thunder_stone_ore",
    "cobblemon:leaf_stone_ore",
    "cobblemon:deepslate_leaf_stone_ore",
    "cobblemon:moon_stone_ore",
    "cobblemon:deepslate_moon_stone_ore",
    "cobblemon:dripstone_moon_stone_ore",
    "cobblemon:sun_stone_ore",
    "cobblemon:deepslate_sun_stone_ore",
    "cobblemon:shiny_stone_ore",
    "cobblemon:deepslate_shiny_stone_ore",
    "cobblemon:dawn_stone_ore",
    "cobblemon:deepslate_dawn_stone_ore",
    "cobblemon:dusk_stone_ore",
    "cobblemon:deepslate_dusk_stone_ore",
    "cobblemon:ice_stone_ore",
    "cobblemon:deepslate_ice_stone_ore"
  ]
}