{
	"format_version": "1.12.0",
	"minecraft:geometry": [
		{
			"description": {
				"identifier": "geometry.dracovish_fetus",
				"texture_width": 64,
				"texture_height": 64,
				"visible_bounds_width": 2,
				"visible_bounds_height": 3.5,
				"visible_bounds_offset": [0, 1.25, 0]
			},
			"bones": [
				{
					"name": "dracovish_fetus",
					"pivot": [0, 0, 0]
				},
				{
					"name": "body",
					"parent": "dracovish_fetus",
					"pivot": [0, 12.5, 0]
				},
				{
					"name": "torso",
					"parent": "body",
					"pivot": [0, 12.5, 0],
					"cubes": [
						{"origin": [-4, 13.5, -4], "size": [8, 6, 8], "inflate": -0.1, "uv": [0, 0]},
						{"origin": [-2.9, 16.4, -5.9], "size": [0, 2, 2], "uv": [4, 0]},
						{"origin": [2.9, 16.4, -5.9], "size": [0, 2, 2], "uv": [0, 0]},
						{"origin": [2.9, 13.6, -5.9], "size": [0, 2, 2], "uv": [0, 12]},
						{"origin": [-2.9, 13.6, -5.9], "size": [0, 2, 2], "uv": [0, 14]}
					]
				},
				{
					"name": "tail",
					"parent": "torso",
					"pivot": [0, 13.6, 2.5],
					"cubes": [
						{"origin": [-2.5, 8.6, -2.5], "size": [5, 5, 5], "uv": [0, 14]},
						{"origin": [-1.5, 10.1, -4.5], "size": [0, 2, 2], "uv": [4, -2]},
						{"origin": [1.5, 10.1, -4.5], "size": [0, 2, 2], "uv": [0, -2]}
					]
				},
				{
					"name": "tail2",
					"parent": "tail",
					"pivot": [0, 8.6, 1.5],
					"cubes": [
						{"origin": [-1.5, 4.6, -1.5], "size": [3, 4, 3], "inflate": 0.01, "uv": [24, 0]}
					]
				},
				{
					"name": "head",
					"parent": "tail2",
					"pivot": [0, 5, 0],
					"cubes": [
						{"origin": [-4.5, 0, -6.5], "size": [9, 3, 9], "inflate": 0.02, "uv": [0, 24]},
						{"origin": [4.5, 3, -1.5], "size": [-9, -1, -5], "inflate": -0.02, "uv": [64, 14]},
						{"origin": [-5.5, 1, -3.5], "size": [1, 3, 5], "inflate": 0.01, "uv": [27, 9]},
						{"origin": [4.5, 1, -3.5], "size": [1, 3, 5], "inflate": 0.01, "uv": [20, 14], "mirror": true},
						{"origin": [-4, 1, 2.5], "size": [8, 3, 3], "uv": [0, 44]},
						{"origin": [-4.5, 2, -1.5], "size": [9, 3, 4], "uv": [0, 50]}
					]
				},
				{
					"name": "fin_right",
					"parent": "head",
					"pivot": [-4.5, 4.5, -0.5],
					"cubes": [
						{"origin": [-7.5, 4.5, -1.5], "size": [3, 0, 2], "uv": [-2, 4]}
					]
				},
				{
					"name": "fin_left",
					"parent": "head",
					"pivot": [4.5, 4.5, -0.5],
					"cubes": [
						{"origin": [4.5, 4.5, -1.5], "size": [3, 0, 2], "uv": [-2, 6], "mirror": true}
					]
				},
				{
					"name": "jaw",
					"parent": "head",
					"pivot": [0, 2, -1.5],
					"cubes": [
						{"origin": [-4.5, 3, -6.5], "size": [9, 3, 5], "inflate": 0.01, "uv": [0, 36]},
						{"origin": [-3.5, 2, -6.5], "size": [7, 1, 0], "uv": [0, 63]}
					]
				},
				{
					"name": "legs",
					"parent": "body",
					"pivot": [-0.75, 10.7, -3]
				},
				{
					"name": "leg_right",
					"parent": "legs",
					"pivot": [-3.9, 16.3, -0.2],
					"cubes": [
						{"origin": [-4.9, 14.8, -1.7], "size": [2, 4, 4], "uv": [52, 0]}
					]
				},
				{
					"name": "leg_right2",
					"parent": "leg_right",
					"pivot": [-3.9, 18.8, -1.2],
					"cubes": [
						{"origin": [-4.4, 18.8, -1.2], "size": [2, 4, 2], "uv": [0, 25]}
					]
				},
				{
					"name": "foot_right",
					"parent": "leg_right2",
					"pivot": [-3.9, 22.8, 0.8],
					"cubes": [
						{"origin": [-4.9, 22.8, -1.2], "size": [3, 4, 2], "inflate": 0.03, "uv": [0, 57]}
					]
				},
				{
					"name": "leg_left",
					"parent": "legs",
					"pivot": [3.9, 16.3, -0.2],
					"cubes": [
						{"origin": [2.9, 14.8, -1.7], "size": [2, 4, 4], "uv": [40, 0], "mirror": true}
					]
				},
				{
					"name": "leg_left2",
					"parent": "leg_left",
					"pivot": [3.9, 18.8, -1.2],
					"cubes": [
						{"origin": [2.4, 18.8, -1.2], "size": [2, 4, 2], "uv": [27, 22], "mirror": true}
					]
				},
				{
					"name": "foot_left",
					"parent": "leg_left2",
					"pivot": [3.9, 22.8, 0.8],
					"cubes": [
						{"origin": [1.9, 22.8, -1.2], "size": [3, 4, 2], "inflate": 0.03, "uv": [10, 57], "mirror": true}
					]
				}
			]
		}
	]
}