{
  "replace": false,
  "values": [
    "cobblemon:assault_vest",
    "cobblemon:big_root",
    "cobblemon:black_belt",
    "cobblemon:black_glasses",
    "cobblemon:black_sludge",
    "cobblemon:charcoal_stick",
    "cobblemon:choice_band",
    "cobblemon:choice_scarf",
    "cobblemon:choice_specs",
    "cobblemon:cleanse_tag",
    "cobblemon:exp_share",
    "cobblemon:dragon_fang",
    "cobblemon:fairy_feather",
    "cobblemon:focus_band",
    "cobblemon:hard_stone",
    "cobblemon:heavy_duty_boots",
    "cobblemon:leftovers",
    "cobblemon:light_clay",
    "cobblemon:magnet",
    "cobblemon:miracle_seed",
    "cobblemon:muscle_band",
    "cobblemon:mystic_water",
    "cobblemon:never_melt_ice",
    "cobblemon:poison_barb",
    "cobblemon:quick_claw",
    "cobblemon:razor_claw",
	"cobblemon:razor_fang",
    "cobblemon:rocky_helmet",
    "cobblemon:safety_goggles",
    "cobblemon:sharp_beak",
    "cobblemon:silk_scarf",
    "cobblemon:silver_powder",
    "cobblemon:soft_sand",
    "cobblemon:spell_tag",
    "cobblemon:twisted_spoon",
    "cobblemon:wise_glasses",
    "cobblemon:bright_powder",
    "cobblemon:metal_powder",
    "cobblemon:quick_powder",
    "cobblemon:destiny_knot",
    "cobblemon:everstone",
    "cobblemon:power_anklet",
    "cobblemon:power_band",
    "cobblemon:power_belt",
    "cobblemon:power_bracer",
    "cobblemon:power_lens",
    "cobblemon:power_weight",
    "cobblemon:mental_herb",
    "cobblemon:mirror_herb",
    "cobblemon:power_herb",
    "cobblemon:life_orb",
    "cobblemon:toxic_orb",
    "cobblemon:flame_orb",
	"cobblemon:white_herb",
	"cobblemon:smoke_ball",
	"cobblemon:lucky_egg",
	"cobblemon:kings_rock",
	"cobblemon:deep_sea_scale",
	"cobblemon:deep_sea_tooth",
	"cobblemon:metal_coat"
  ]
}